%% DO NOT EDIT this file manually; it is automatically
%% generated from LSR http://lsr.di.unimi.it
%% Make any changes in LSR itself, or in Documentation/snippets/new/ ,
%% and then run scripts/auxiliar/makelsr.py
%%
%% This file is in the public domain.
\version "2.23.9"

\header {
  lsrtags = "expressive-marks"

  texidoc = "
Text style dynamic changes (such as @emph{cresc.} and @emph{dim.}) are
printed with a dashed line showing their extent.  This line can be
suppressed in the following way:

"
  doctitle = "Hiding the extender line for text dynamics"
} % begin verbatim

\relative c'' {
  \override DynamicTextSpanner.style = #'none
  \crescTextCresc
  c1\< | d | b | c\!
}
