%% DO NOT EDIT this file manually; it is automatically
%% generated from LSR http://lsr.di.unimi.it
%% Make any changes in LSR itself, or in Documentation/snippets/new/ ,
%% and then run scripts/auxiliar/makelsr.py
%%
%% This file is in the public domain.
\version "2.23.9"

\header {
  lsrtags = "contexts-and-engravers, preparing-parts, staff-notation, tweaks-and-overrides"

  texidoc = "
The property @code{systemStartDelimiterHierarchy} can be used to make
more complex nested staff groups. The command
@code{\\set StaffGroup.systemStartDelimiterHierarchy} takes an
alphabetical list of the number of staves produced. Before each staff a
system start delimiter can be given. It has to be enclosed in brackets
and takes as much staves as the brackets enclose. Elements in the list
can be omitted, but the first bracket takes always the complete number
of staves. The possibilities are @code{SystemStartBar},
@code{SystemStartBracket}, @code{SystemStartBrace}, and
@code{SystemStartSquare}.

"
  doctitle = "Nesting staves"
} % begin verbatim

\new StaffGroup
\relative c'' <<
  \override StaffGroup.SystemStartSquare.collapse-height = #4
  \set StaffGroup.systemStartDelimiterHierarchy
    = #'(SystemStartSquare (SystemStartBrace (SystemStartBracket a
                             (SystemStartSquare b)  ) c ) d)
  \new Staff { c1 }
  \new Staff { c1 }
  \new Staff { c1 }
  \new Staff { c1 }
  \new Staff { c1 }
>>
