%% DO NOT EDIT this file manually; it is automatically
%% generated from LSR http://lsr.di.unimi.it
%% Make any changes in LSR itself, or in Documentation/snippets/new/ ,
%% and then run scripts/auxiliar/makelsr.py
%%
%% This file is in the public domain.
\version "2.23.9"

\header {
  lsrtags = "pitches, world-music"

  texidoc = "
This template uses the start of a well-known Turkish Saz Semai that is
familiar in the repertoire in order to illustrate some of the elements
of Turkish music notation.

"
  doctitle = "Turkish Makam example"
} % begin verbatim

\paper { tagline = ##f }

% Initialize makam settings
\include "turkish-makam.ly"

\header {
    title = "Hüseyni Saz Semaisi"
    composer = "Lavtacı Andon"
}

\relative {
  \set Staff.extraNatural = ##f
  \set Staff.autoBeaming = ##f

  \key a \huseyni
  \time 10/8

  a'4 g'16 [fb] e8. [d16] d [c d e] c [d c8] bfc |
  a16 [bfc a8] bfc c16 [d c8] d16 [e d8] e4 fb8 |
  d4 a'8 a16 [g fb e] fb8 [g] a8. [b16] a16 [g] |
  g4 g16 [fb] fb8. [e16] e [g fb e] e4 r8 |
}
